{
  "formatVersion": 1,
  "database": {
    "version": 1,
    "identityHash": "e6241ed5e8661f952c8d8b0057003c89",
    "entities": [
      {
        "tableName": "DeviceType",
        "createSql": "CREATE TABLE IF NOT EXISTS `${TABLE_NAME}` (`idDeviceType` INTEGER PRIMARY KEY AUTOINCREMENT NOT NULL, `name` TEXT NOT NULL)",
        "fields": [
          {
            "fieldPath": "idDeviceType",
            "columnName": "idDeviceType",
            "affinity": "INTEGER",
            "notNull": true
          },
          {
            "fieldPath": "name",
            "columnName": "name",
            "affinity": "TEXT",
            "notNull": true
          }
        ],
        "primaryKey": {
          "columnNames": [
            "idDeviceType"
          ],
          "autoGenerate": true
        },
        "indices": [
          {
            "name": "index_DeviceType_name",
            "unique": true,
            "columnNames": [
              "name"
            ],
            "createSql": "CREATE UNIQUE INDEX IF NOT EXISTS `index_DeviceType_name` ON `${TABLE_NAME}` (`name`)"
          }
        ],
        "foreignKeys": []
      },
      {
        "tableName": "DeviceButton",
        "createSql": "CREATE TABLE IF NOT EXISTS `${TABLE_NAME}` (`idDeviceButton` INTEGER PRIMARY KEY AUTOINCREMENT NOT NULL, `name` TEXT NOT NULL)",
        "fields": [
          {
            "fieldPath": "idDeviceButton",
            "columnName": "idDeviceButton",
            "affinity": "INTEGER",
            "notNull": true
          },
          {
            "fieldPath": "name",
            "columnName": "name",
            "affinity": "TEXT",
            "notNull": true
          }
        ],
        "primaryKey": {
          "columnNames": [
            "idDeviceButton"
          ],
          "autoGenerate": true
        },
        "indices": [
          {
            "name": "index_DeviceButton_name",
            "unique": true,
            "columnNames": [
              "name"
            ],
            "createSql": "CREATE UNIQUE INDEX IF NOT EXISTS `index_DeviceButton_name` ON `${TABLE_NAME}` (`name`)"
          }
        ],
        "foreignKeys": []
      },
      {
        "tableName": "ButtonTypeDeviceRelation",
        "createSql": "CREATE TABLE IF NOT EXISTS `${TABLE_NAME}` (`idButtonTypeDeviceRelation` INTEGER PRIMARY KEY AUTOINCREMENT NOT NULL, `idDeviceButton` INTEGER NOT NULL, `idDeviceType` INTEGER NOT NULL, `code` TEXT NOT NULL, FOREIGN KEY(`idDeviceButton`) REFERENCES `DeviceButton`(`idDeviceButton`) ON UPDATE CASCADE ON DELETE CASCADE , FOREIGN KEY(`idDeviceType`) REFERENCES `DeviceType`(`idDeviceType`) ON UPDATE CASCADE ON DELETE CASCADE )",
        "fields": [
          {
            "fieldPath": "idButtonTypeDeviceRelation",
            "columnName": "idButtonTypeDeviceRelation",
            "affinity": "INTEGER",
            "notNull": true
          },
          {
            "fieldPath": "idDeviceButton",
            "columnName": "idDeviceButton",
            "affinity": "INTEGER",
            "notNull": true
          },
          {
            "fieldPath": "idDeviceType",
            "columnName": "idDeviceType",
            "affinity": "INTEGER",
            "notNull": true
          },
          {
            "fieldPath": "code",
            "columnName": "code",
            "affinity": "TEXT",
            "notNull": true
          }
        ],
        "primaryKey": {
          "columnNames": [
            "idButtonTypeDeviceRelation"
          ],
          "autoGenerate": true
        },
        "indices": [
          {
            "name": "index_ButtonTypeDeviceRelation_idDeviceType_idDeviceButton",
            "unique": true,
            "columnNames": [
              "idDeviceType",
              "idDeviceButton"
            ],
            "createSql": "CREATE UNIQUE INDEX IF NOT EXISTS `index_ButtonTypeDeviceRelation_idDeviceType_idDeviceButton` ON `${TABLE_NAME}` (`idDeviceType`, `idDeviceButton`)"
          }
        ],
        "foreignKeys": [
          {
            "table": "DeviceButton",
            "onDelete": "CASCADE",
            "onUpdate": "CASCADE",
            "columns": [
              "idDeviceButton"
            ],
            "referencedColumns": [
              "idDeviceButton"
            ]
          },
          {
            "table": "DeviceType",
            "onDelete": "CASCADE",
            "onUpdate": "CASCADE",
            "columns": [
              "idDeviceType"
            ],
            "referencedColumns": [
              "idDeviceType"
            ]
          }
        ]
      },
      {
        "tableName": "AconditionedAirButtonRelation",
        "createSql": "CREATE TABLE IF NOT EXISTS `${TABLE_NAME}` (`idAconditionedAirButtonRelation` INTEGER PRIMARY KEY AUTOINCREMENT NOT NULL, `idMode` INTEGER NOT NULL, `idTemperature` INTEGER NOT NULL, `idSpeed` INTEGER NOT NULL, `code` TEXT NOT NULL, FOREIGN KEY(`idMode`) REFERENCES `AconditionedAirMode`(`idMode`) ON UPDATE CASCADE ON DELETE CASCADE , FOREIGN KEY(`idTemperature`) REFERENCES `AconditionedAirTemperature`(`idTemperature`) ON UPDATE CASCADE ON DELETE CASCADE , FOREIGN KEY(`idSpeed`) REFERENCES `AconditionedAirSpeed`(`idSpeed`) ON UPDATE CASCADE ON DELETE CASCADE )",
        "fields": [
          {
            "fieldPath": "idAconditionedAirButtonRelation",
            "columnName": "idAconditionedAirButtonRelation",
            "affinity": "INTEGER",
            "notNull": true
          },
          {
            "fieldPath": "idMode",
            "columnName": "idMode",
            "affinity": "INTEGER",
            "notNull": true
          },
          {
            "fieldPath": "idTemperature",
            "columnName": "idTemperature",
            "affinity": "INTEGER",
            "notNull": true
          },
          {
            "fieldPath": "idSpeed",
            "columnName": "idSpeed",
            "affinity": "INTEGER",
            "notNull": true
          },
          {
            "fieldPath": "code",
            "columnName": "code",
            "affinity": "TEXT",
            "notNull": true
          }
        ],
        "primaryKey": {
          "columnNames": [
            "idAconditionedAirButtonRelation"
          ],
          "autoGenerate": true
        },
        "indices": [
          {
            "name": "index_AconditionedAirButtonRelation_idMode_idTemperature_idSpeed",
            "unique": true,
            "columnNames": [
              "idMode",
              "idTemperature",
              "idSpeed"
            ],
            "createSql": "CREATE UNIQUE INDEX IF NOT EXISTS `index_AconditionedAirButtonRelation_idMode_idTemperature_idSpeed` ON `${TABLE_NAME}` (`idMode`, `idTemperature`, `idSpeed`)"
          }
        ],
        "foreignKeys": [
          {
            "table": "AconditionedAirMode",
            "onDelete": "CASCADE",
            "onUpdate": "CASCADE",
            "columns": [
              "idMode"
            ],
            "referencedColumns": [
              "idMode"
            ]
          },
          {
            "table": "AconditionedAirTemperature",
            "onDelete": "CASCADE",
            "onUpdate": "CASCADE",
            "columns": [
              "idTemperature"
            ],
            "referencedColumns": [
              "idTemperature"
            ]
          },
          {
            "table": "AconditionedAirSpeed",
            "onDelete": "CASCADE",
            "onUpdate": "CASCADE",
            "columns": [
              "idSpeed"
            ],
            "referencedColumns": [
              "idSpeed"
            ]
          }
        ]
      },
      {
        "tableName": "AconditionedAirMode",
        "createSql": "CREATE TABLE IF NOT EXISTS `${TABLE_NAME}` (`idMode` INTEGER PRIMARY KEY AUTOINCREMENT NOT NULL, `name` TEXT NOT NULL)",
        "fields": [
          {
            "fieldPath": "idMode",
            "columnName": "idMode",
            "affinity": "INTEGER",
            "notNull": true
          },
          {
            "fieldPath": "name",
            "columnName": "name",
            "affinity": "TEXT",
            "notNull": true
          }
        ],
        "primaryKey": {
          "columnNames": [
            "idMode"
          ],
          "autoGenerate": true
        },
        "indices": [
          {
            "name": "index_AconditionedAirMode_name",
            "unique": true,
            "columnNames": [
              "name"
            ],
            "createSql": "CREATE UNIQUE INDEX IF NOT EXISTS `index_AconditionedAirMode_name` ON `${TABLE_NAME}` (`name`)"
          }
        ],
        "foreignKeys": []
      },
      {
        "tableName": "AconditionedAirTemperature",
        "createSql": "CREATE TABLE IF NOT EXISTS `${TABLE_NAME}` (`idTemperature` INTEGER PRIMARY KEY AUTOINCREMENT NOT NULL, `value` INTEGER NOT NULL)",
        "fields": [
          {
            "fieldPath": "idTemperature",
            "columnName": "idTemperature",
            "affinity": "INTEGER",
            "notNull": true
          },
          {
            "fieldPath": "value",
            "columnName": "value",
            "affinity": "INTEGER",
            "notNull": true
          }
        ],
        "primaryKey": {
          "columnNames": [
            "idTemperature"
          ],
          "autoGenerate": true
        },
        "indices": [
          {
            "name": "index_AconditionedAirTemperature_value",
            "unique": true,
            "columnNames": [
              "value"
            ],
            "createSql": "CREATE UNIQUE INDEX IF NOT EXISTS `index_AconditionedAirTemperature_value` ON `${TABLE_NAME}` (`value`)"
          }
        ],
        "foreignKeys": []
      },
      {
        "tableName": "AconditionedAirSpeed",
        "createSql": "CREATE TABLE IF NOT EXISTS `${TABLE_NAME}` (`idSpeed` INTEGER PRIMARY KEY AUTOINCREMENT NOT NULL, `description` TEXT NOT NULL)",
        "fields": [
          {
            "fieldPath": "idSpeed",
            "columnName": "idSpeed",
            "affinity": "INTEGER",
            "notNull": true
          },
          {
            "fieldPath": "description",
            "columnName": "description",
            "affinity": "TEXT",
            "notNull": true
          }
        ],
        "primaryKey": {
          "columnNames": [
            "idSpeed"
          ],
          "autoGenerate": true
        },
        "indices": [
          {
            "name": "index_AconditionedAirSpeed_description",
            "unique": true,
            "columnNames": [
              "description"
            ],
            "createSql": "CREATE UNIQUE INDEX IF NOT EXISTS `index_AconditionedAirSpeed_description` ON `${TABLE_NAME}` (`description`)"
          }
        ],
        "foreignKeys": []
      }
    ],
    "views": [
      {
        "viewName": "ButtonsControl",
        "createSql": "CREATE VIEW `${VIEW_NAME}` AS SELECT dt.name as nameDevice, db.name as nameButton, btdr.code FROM ButtonTypeDeviceRelation btdr INNER JOIN DeviceButton db ON btdr.idDeviceButton = db.idDeviceButton INNER JOIN DeviceType dt ON btdr.idDeviceType = dt.idDeviceType"
      },
      {
        "viewName": "AconditionedAirButtonControl",
        "createSql": "CREATE VIEW `${VIEW_NAME}` AS SELECT aam.name as mode, aat.value as temperature, aas.description as speed, aabr.code FROM AconditionedAirButtonRelation aabr INNER JOIN AconditionedAirMode aam ON aabr.idMode = aam.idMode INNER JOIN AconditionedAirTemperature aat ON aabr.idTemperature = aat.idTemperature INNER JOIN AconditionedAirSpeed aas ON aabr.idSpeed = aas.idSpeed"
      }
    ],
    "setupQueries": [
      "CREATE TABLE IF NOT EXISTS room_master_table (id INTEGER PRIMARY KEY,identity_hash TEXT)",
      "INSERT OR REPLACE INTO room_master_table (id,identity_hash) VALUES(42, 'e6241ed5e8661f952c8d8b0057003c89')"
    ]
  }
}